<?xml version="1.0" standalone="no"?>
<!DOCTYPE svg PUBLIC "-//W3C//DTD SVG 20010904//EN"
 "http://www.w3.org/TR/2001/REC-SVG-20010904/DTD/svg10.dtd">
<svg version="1.0" xmlns="http://www.w3.org/2000/svg"
 width="500.000000pt" height="250.000000pt" viewBox="0 0 500.000000 250.000000"
 preserveAspectRatio="xMidYMid meet">
<metadata>
Created by potrace 1.16, written by Peter Selinger 2001-2019
</metadata>
<g transform="translate(0.000000,250.000000) scale(0.050000,-0.050000)"
fill="#fdf800" stroke="none">
<path d="M0 2490 l0 -2490 4990 0 4990 0 0 2490 0 2490 -4990 0 -4990 0 0
-2490z m3990 1772 c102 -109 541 -575 975 -1037 435 -461 844 -897 909 -967
l120 -128 918 0 918 0 0 -450 0 -450 -1077 -1 c-593 -1 -1090 -2 -1106 -3 -30
-3 -56 21 -373 359 -200 214 -1092 1160 -1249 1326 -60 64 -222 236 -360 382
l-250 266 -182 1 -183 0 0 -1165 0 -1165 -450 0 -450 0 0 1615 0 1615 828 -1
827 0 185 -197z m3840 -252 l0 -450 -1379 0 -1379 0 -309 328 c-289 307 -420
446 -502 535 l-35 37 1802 0 1802 0 0 -450z m-5600 -3226 l0 -184 -35 0 -35 0
0 178 c0 98 2 181 4 183 3 2 18 4 35 5 l31 1 0 -183z m466 174 c5 -4 39 -53
75 -110 l64 -103 3 108 c1 59 6 107 10 108 4 0 19 3 35 5 l27 5 0 -186 0 -185
-32 0 c-31 0 -38 8 -103 108 l-70 107 -3 -107 -3 -108 -34 0 -35 0 0 178 c0
98 2 181 5 183 6 7 48 5 61 -3z m820 -13 c36 -23 54 -57 61 -113 10 -84 -5
-159 -37 -195 -28 -31 -30 -32 -129 -35 l-101 -4 0 179 c0 99 3 183 8 187 12
14 172 -2 198 -19z m512 -115 c3 -147 11 -170 62 -170 51 0 59 23 62 170 l3
135 35 0 35 0 0 -140 c0 -153 -7 -176 -61 -212 -34 -22 -114 -22 -148 0 -52
34 -60 60 -64 198 -3 71 -2 136 2 144 4 11 16 15 38 13 l33 -3 3 -135z m753
130 c54 -15 68 -36 41 -62 -17 -17 -24 -19 -36 -9 -8 7 -33 11 -57 9 -78 -6
-80 -65 -3 -80 75 -15 84 -18 104 -40 30 -32 28 -111 -4 -143 -46 -46 -139
-54 -208 -18 -34 16 -35 23 -5 51 19 18 24 19 41 6 26 -18 100 -18 116 0 6 8
10 25 8 38 -3 24 -22 33 -92 43 -53 9 -86 46 -86 99 0 89 78 134 181 106z
m689 -27 c0 -33 0 -33 -50 -33 l-50 0 0 -150 0 -150 -35 0 -35 0 0 150 0 150
-45 0 c-43 0 -45 1 -45 28 0 16 3 31 6 35 3 3 62 5 130 5 l124 -1 0 -34z m529
28 c69 -10 101 -44 101 -109 0 -35 -6 -49 -30 -73 l-30 -30 35 -69 c19 -38 35
-72 35 -75 0 -3 -18 -5 -39 -5 -38 0 -39 1 -72 70 -29 62 -36 70 -61 70 l-28
0 0 -70 0 -70 -35 0 -35 0 0 185 0 185 53 -1 c28 0 76 -4 106 -8z m561 -176
l0 -185 -35 0 -35 0 0 185 0 185 35 0 35 0 0 -185z m638 148 l3 -33 -86 0 -86
0 3 -42 3 -42 65 -1 65 0 3 -32 3 -33 -70 0 -71 0 0 -45 0 -45 85 0 85 0 0
-30 0 -30 -120 0 -120 0 0 183 0 183 118 0 117 -1 3 -32z m571 17 l44 -20 -23
-25 c-17 -19 -27 -22 -41 -15 -27 15 -95 12 -109 -5 -15 -18 -10 -45 10 -56 8
-5 41 -13 73 -20 49 -9 62 -16 78 -42 41 -65 5 -147 -74 -168 -44 -12 -129 2
-161 26 -19 15 -19 15 3 39 21 22 25 23 49 10 57 -30 138 -8 130 34 -4 20 -41
39 -89 47 -51 8 -87 39 -95 81 -19 104 91 165 205 114z"/>
<path d="M3380 780 l0 -120 40 0 c65 0 80 23 80 124 0 76 -2 86 -22 100 -12 9
-39 16 -60 16 l-38 0 0 -120z"/>
</g>
</svg>
